{
  "login": {
    "token": "weipfweiooiwehgoiwhgr"
  },
  "users": [
    {
      "id": 11,
      "name": "Mario",
      "age": 15,
      "bitcoins": 1.12341412412412,
      "gender": "M",
      "birthday": 1598910648000,
      "city": "Trieste"
    },
    {
      "id": 22,
      "name": "Silvia",
      "age": 24,
      "bitcoins": 2.12341412412412,
      "gender": "F",
      "birthday": 1593910648000,
      "city": "Roma"
    },
    {
      "id": 33,
      "name": "Lorenzoe",
      "age": 29,
      "bitcoins": 1.2323523523,
      "gender": "M",
      "birthday": 1591910648000,
      "city": "Milan"
    },
    {
      "name": "Lorenzo",
      "city": "Milan",
      "gender": "M",
      "id": 34
    },
    {
      "name": "aaaa",
      "city": "333",
      "gender": "M",
      "id": 35
    },
    {
      "name": "wefew",
      "city": "23432",
      "gender": "M",
      "id": 36
    }
  ]
}